Labs/Lab0/simulation/qsim/EncoderPulseCounterTop.msim.vcd
$comment
	File created using the following command:
		vcd file EncoderPulseCounterTop.msim.vcd -direction
$end
$date
	Wed Jan 27 12:10:56 2016
$end
$version
	ModelSim Version 10.1d
$end
$timescale
	1ps
$end
$scope module EncoderPulseCounterTop_vlg_vec_tst $end
$var reg 1 ! A $end
$var reg 1 " B $end
$var reg 1 # clk $end
$var reg 1 $ reset $end
$var wire 1 % count [7] $end
$var wire 1 & count [6] $end
$var wire 1 ' count [5] $end
$var wire 1 ( count [4] $end
$var wire 1 ) count [3] $end
$var wire 1 * count [2] $end
$var wire 1 + count [1] $end
$var wire 1 , count [0] $end
$var wire 1 - sampler $end
$scope module i1 $end
$var wire 1 . gnd $end
$var wire 1 / vcc $end
$var wire 1 0 unknown $end
$var tri1 1 1 devclrn $end
$var tri1 1 2 devpor $end
$var tri1 1 3 devoe $end
$var wire 1 4 count[0]~output_o $end
$var wire 1 5 count[1]~output_o $end
$var wire 1 6 count[2]~output_o $end
$var wire 1 7 count[3]~output_o $end
$var wire 1 8 count[4]~output_o $end
$var wire 1 9 count[5]~output_o $end
$var wire 1 : count[6]~output_o $end
$var wire 1 ; count[7]~output_o $end
$var wire 1 < clk~input_o $end
$var wire 1 = clk~inputclkctrl_outclk $end
$var wire 1 > udCtr|count[0]~8_combout $end
$var wire 1 ? A~input_o $end
$var wire 1 @ B~input_o $end
$var wire 1 A encoder|_B~feeder_combout $end
$var wire 1 B encoder|_B~q $end
$var wire 1 C encoder|_A~feeder_combout $end
$var wire 1 D encoder|_A~q $end
$var wire 1 E encoder|change~combout $end
$var wire 1 F reset~input_o $end
$var wire 1 G udCtr|count[0]~10_combout $end
$var wire 1 H encoder|direction~combout $end
$var wire 1 I udCtr|count[0]~9 $end
$var wire 1 J udCtr|count[1]~11_combout $end
$var wire 1 K udCtr|count[1]~12 $end
$var wire 1 L udCtr|count[2]~13_combout $end
$var wire 1 M udCtr|count[2]~14 $end
$var wire 1 N udCtr|count[3]~15_combout $end
$var wire 1 O udCtr|count[3]~16 $end
$var wire 1 P udCtr|count[4]~17_combout $end
$var wire 1 Q udCtr|count[4]~18 $end
$var wire 1 R udCtr|count[5]~19_combout $end
$var wire 1 S udCtr|count[5]~20 $end
$var wire 1 T udCtr|count[6]~21_combout $end
$var wire 1 U udCtr|count[6]~22 $end
$var wire 1 V udCtr|count[7]~23_combout $end
$var wire 1 W udCtr|count [7] $end
$var wire 1 X udCtr|count [6] $end
$var wire 1 Y udCtr|count [5] $end
$var wire 1 Z udCtr|count [4] $end
$var wire 1 [ udCtr|count [3] $end
$var wire 1 \ udCtr|count [2] $end
$var wire 1 ] udCtr|count [1] $end
$var wire 1 ^ udCtr|count [0] $end
$upscope $end
$upscope $end
$enddefinitions $end
#0
$dumpvars
0!
0"
0#
0$
0,
0+
0*
0)
0(
0'
0&
0%
x-
0.
1/
x0
11
12
13
04
05
06
07
08
09
0:
0;
0<
0=
1>
0?
0@
0A
0B
0C
0D
1E
0F
1G
0H
0I
1J
1K
1L
0M
1N
1O
1P
0Q
1R
1S
1T
0U
1V
0^
0]
0\
0[
0Z
0Y
0X
0W
$end
#10000
1$
1F
0-
0G
#20000
1!
0$
1?
0F
1-
1H
0E
1C
1G
0V
0T
0R
0P
0N
0L
0J
#25000
1#
1<
1=
0-
1D
1^
1E
1I
0>
14
1,
1J
#50000
1"
0#
1@
0<
0=
1-
0E
1A
#75000
1#
1<
1=
0-
1B
1]
0^
0H
1E
0K
0J
0I
1>
15
04
1+
0,
1V
1T
1R
1P
1N
1M
0O
0N
1Q
0P
0S
0R
1U
0T
0V
#90000
0!
0?
1-
1H
0E
0C
1V
0U
1T
1S
1R
0Q
1P
1O
1N
0M
1L
1K
1J
0V
0T
0R
0P
0N
0L
#100000
0#
0<
0=
0-
#110000
0"
1!
0@
1?
1-
0A
0H
1C
1V
1T
1R
1P
1N
1L
0K
0J
1M
0L
0O
0N
1Q
0P
0S
0R
1U
0T
0V
#125000
1#
1<
1=
0-
0B
0]
1^
1H
1E
1K
1J
1I
0>
05
14
0+
1,
1V
0U
1T
1S
1R
0Q
1P
1O
1N
0M
0V
0T
0R
0P
0N
#140000
1"
1@
1-
0E
1A
#150000
0#
0<
0=
0-
#160000
0!
0?
1-
0H
0C
1V
1T
1R
1P
1N
1L
0K
0J
1M
0L
0O
0N
1Q
0P
0S
0R
1U
0T
0V
#175000
1#
1<
1=
0-
0D
1B
0^
1E
1H
0I
1>
04
0,
1V
0U
1T
1S
1R
0Q
1P
1O
1N
0M
1L
1K
0V
0T
0R
0P
0N
0L
#200000
0#
0<
0=
1-
#210000
0"
0@
0-
0E
0A
#220000
1"
1@
1-
1E
1A
#225000
1#
1<
1=
0-
#240000
1!
1?
1-
0H
0E
1C
1V
1T
1R
1P
1N
1L
1J
#250000
0#
0<
0=
0-
#275000
1#
1<
1=
1-
1D
1W
1X
1Y
1Z
1[
1\
1]
1^
1E
0V
1U
0T
0S
0R
1Q
0P
0O
0N
1M
0L
0K
0J
1I
0>
1;
1:
19
18
17
16
15
14
1%
1&
1'
1(
1)
1*
1+
1,
1V
1T
1R
1P
1N
1L
1J
#280000
0"
0@
0-
0E
0A
#300000
0#
0<
0=
1-
#310000
0!
0?
0-
1H
0C
0V
0T
0R
0P
0N
0L
0J
#320000
1"
1@
1-
1A
#325000
1#
1<
1=
0-
0D
0W
0X
0Y
0Z
0[
0\
0]
0^
1E
1V
0U
1T
1S
1R
0Q
1P
1O
1N
0M
1L
1K
1J
0I
1>
0;
0:
09
08
07
06
05
04
0%
0&
0'
0(
0)
0*
0+
0,
0V
0T
0R
0P
0N
0L
0J
#350000
1!
0#
1?
0<
0=
1-
0H
0E
1C
1V
1T
1R
1P
1N
1L
1J
#360000
0"
0@
0-
0A
#375000
1#
1<
1=
1-
1D
0B
1W
1X
1Y
1Z
1[
1\
1]
1^
1E
1H
0V
1U
0T
0S
0R
1Q
0P
0O
0N
1M
0L
0K
0J
1I
0>
1;
1:
19
18
17
16
15
14
1%
1&
1'
1(
1)
1*
1+
1,
#400000
0#
0<
0=
0-
#425000
1#
1<
1=
1-
0W
0X
0Y
0Z
0[
0\
0]
0^
1V
0U
1T
1S
1R
0Q
1P
1O
1N
0M
1L
1K
1J
0I
1>
0;
0:
09
08
07
06
05
04
0%
0&
0'
0(
0)
0*
0+
0,
0V
0T
0R
0P
0N
0L
0J
#440000
0!
0?
0-
0H
0E
0C
1V
1T
1R
1P
1N
1L
1J
#450000
0#
0<
0=
1-
#475000
1#
1<
1=
0-
0D
1W
1X
1Y
1Z
1[
1\
1]
1^
1E
0V
1U
0T
0S
0R
1Q
0P
0O
0N
1M
0L
0K
0J
1I
0>
1;
1:
19
18
17
16
15
14
1%
1&
1'
1(
1)
1*
1+
1,
1V
1T
1R
1P
1N
1L
1J
#500000
0#
0<
0=
1-
#525000
1#
1<
1=
0-
0W
0X
0Y
0Z
0[
0\
0]
0^
0V
0T
0R
0P
0N
0L
0J
0I
1>
0;
0:
09
08
07
06
05
04
0%
0&
0'
0(
0)
0*
0+
0,
1K
1J
0M
1L
1O
1N
0Q
1P
1S
1R
0U
1T
1V
#550000
0#
0<
0=
1-
#575000
1#
1<
1=
0-
#600000
0#
0<
0=
1-
#625000
1#
1<
1=
0-
#650000
0#
0<
0=
1-
#675000
1#
1<
1=
0-
#700000
0#
0<
0=
1-
#725000
1#
1<
1=
0-
#750000
0#
0<
0=
1-
#775000
1#
1<
1=
0-
#800000
0#
0<
0=
1-
#825000
1#
1<
1=
0-
#850000
0#
0<
0=
1-
#875000
1#
1<
1=
0-
#900000
0#
0<
0=
1-
#925000
1#
1<
1=
0-
#950000
0#
0<
0=
1-
#975000
1#
1<
1=
0-
